Project Ranger Time Sheet,Barrett Otte

Date,2018-08-30
,Google Chrome,00:05:17
,Oracle VM VirtualBox,00:00:00
,Blender,00:00:00
,Adobe Photoshop CS6,00:00:00
,Unity,00:00:00
,Visual Studio Code,00:00:00
,Microsoft Visio,00:00:00
Total,,00:05:17

Date,2018-08-31
,Google Chrome,00:20:20
,Oracle VM VirtualBox,01:23:40
,Blender,00:00:00
,Adobe Photoshop CS6,00:00:00
,Unity,00:00:00
,Visual Studio Code,00:00:00
,Microsoft Visio,00:00:00
Total,,01:44:00

Date,2018-09-01
,Google Chrome,00:18:24
,Oracle VM VirtualBox,00:00:00
,Blender,00:00:00
,Adobe Photoshop CS6,00:00:00
,Unity,00:45:42
,Visual Studio Code,00:00:00
,Microsoft Visio,00:00:00
Total,,01:04:06

Date,2018-09-02
,Google Chrome,00:01:26
,Oracle VM VirtualBox,00:00:07
,Blender,00:02:49
,Adobe Photoshop CS6,00:04:14
,Unity,00:05:19
,Visual Studio Code,00:00:00
,Microsoft Visio,00:00:45
Total,,00:14:40

Date,2018-09-03
,Google Chrome,01:17:20
,Oracle VM VirtualBox,00:00:00
,Blender,00:00:00
,Adobe Photoshop CS6,00:01:21
,Unity,00:06:51
,Visual Studio Code,00:00:00
,Microsoft Visio,00:00:00
Total,,01:25:32

Date,2018-09-04
,Google Chrome,00:01:15
,Oracle VM VirtualBox,01:01:38
,Blender,00:00:00
,Adobe Photoshop CS6,00:00:00
,Unity,00:00:48
,Visual Studio Code,00:00:00
,Microsoft Visio,00:00:00
Total,,01:03:41

Date,2018-09-05
,Google Chrome,00:01:29
,Oracle VM VirtualBox,02:20:26
,Blender,00:00:00
,Adobe Photoshop CS6,00:00:00
,Unity,00:00:00
,Visual Studio Code,00:00:00
,Microsoft Visio,00:00:00
Total,,02:21:55

Date,2018-09-06
,Google Chrome,00:00:11
,Oracle VM VirtualBox,00:56:54
,Blender,00:00:00
,Adobe Photoshop CS6,00:00:00
,Unity,00:00:00
,Visual Studio Code,00:00:00
,Microsoft Visio,00:00:00
Total,,00:57:05

Date,2018-09-07
,Google Chrome,00:00:00
,Oracle VM VirtualBox,00:00:00
,Blender,00:00:00
,Adobe Photoshop CS6,00:00:00
,Unity,00:00:00
,Visual Studio Code,00:00:00
,Microsoft Visio,00:00:00
Total,,00:00:00

Date,2018-09-08
,Google Chrome,00:13:16
,Oracle VM VirtualBox,00:00:00
,Blender,00:00:00
,Adobe Photoshop CS6,00:00:00
,Unity,00:00:00
,Visual Studio Code,00:00:00
,Microsoft Visio,00:46:02
Total,,00:59:18

Date,2018-09-09
,Google Chrome,00:10:04
,Oracle VM VirtualBox,02:02:37
,Blender,00:00:00
,Adobe Photoshop CS6,00:00:00
,Unity,00:09:07
,Visual Studio Code,00:32:37
,Microsoft Visio,00:03:38
Total,,02:58:03

Date,2018-09-10
,Google Chrome,00:17:40
,Oracle VM VirtualBox,00:41:06
,Blender,00:00:00
,Adobe Photoshop CS6,00:00:00
,Unity,00:02:16
,Visual Studio Code,00:00:08
,Microsoft Visio,00:00:08
Total,,01:01:18

Date,2018-09-11
,Google Chrome,00:02:41
,Oracle VM VirtualBox,00:01:49
,Blender,00:00:00
,Adobe Photoshop CS6,00:00:00
,Unity,00:00:00
,Visual Studio Code,01:42:14
,Microsoft Visio,00:00:00
Total,,01:46:44

Date,2018-09-12
,Google Chrome,00:17:28
,Oracle VM VirtualBox,00:00:00
,Blender,00:00:00
,Adobe Photoshop CS6,00:00:00
,Unity,00:07:07
,Visual Studio Code,00:46:14
,Microsoft Visio,00:00:00
Total,,01:10:49

Date,2018-09-13
,Google Chrome,00:06:41
,Oracle VM VirtualBox,00:00:00
,Blender,00:00:00
,Adobe Photoshop CS6,00:00:00
,Unity,00:00:00
,Visual Studio Code,03:46:21
,Microsoft Visio,00:11:06
Total,,04:04:08

Date,2018-09-14
,Google Chrome,00:27:24
,Oracle VM VirtualBox,00:00:00
,Blender,00:00:00
,Adobe Photoshop CS6,00:00:00
,Unity,00:00:00
,Visual Studio Code,01:09:04
,Microsoft Visio,00:00:00
Total,,01:36:28

Date,2018-09-15
,Google Chrome,01:12:09
,Oracle VM VirtualBox,04:00:44
,Blender,00:00:00
,Adobe Photoshop CS6,00:10:22
,Unity,01:48:57
,Visual Studio Code,00:27:36
,Microsoft Visio,00:00:38
Total,,07:40:26

Date,2018-09-16
,Google Chrome,00:05:48
,Oracle VM VirtualBox,00:00:00
,Blender,00:00:00
,Adobe Photoshop CS6,00:00:00
,Unity,00:00:00
,Visual Studio Code,00:00:00
,Microsoft Visio,00:00:00
Total,,00:05:48

Date,2018-09-17
,Google Chrome,00:02:42
,Oracle VM VirtualBox,00:33:42
,Blender,00:00:00
,Adobe Photoshop CS6,00:00:00
,Unity,00:00:00
,Visual Studio Code,00:00:00
,Microsoft Visio,00:00:00
Total,,00:36:24

Date,2018-09-18
,Google Chrome,00:00:00
,Oracle VM VirtualBox,00:09:37
,Blender,00:00:00
,Adobe Photoshop CS6,00:00:00
,Unity,00:00:00
,Visual Studio Code,00:00:00
,Microsoft Visio,00:00:00
Total,,00:09:37

Date,2018-09-19
,Google Chrome,00:09:21
,Oracle VM VirtualBox,00:00:00
,Blender,00:00:00
,Adobe Photoshop CS6,00:00:00
,Unity,00:00:00
,Visual Studio Code,00:00:00
,Microsoft Visio,00:00:00
Total,,00:09:21

Date,2018-09-21
,Google Chrome,00:00:00
,Oracle VM VirtualBox,00:00:00
,Blender,00:00:00
,Adobe Photoshop CS6,00:00:00
,Unity,00:00:00
,Visual Studio Code,00:00:00
,Microsoft Visio,00:00:00
Total,,00:00:00

Date,2018-09-22
,Google Chrome,00:51:51
,Oracle VM VirtualBox,00:00:00
,Blender,00:00:00
,Adobe Photoshop CS6,00:00:00
,Unity,00:23:36
,Visual Studio Code,01:20:53
,Microsoft Visio,00:00:00
Total,,02:36:20

Date,2018-09-23
,Google Chrome,00:01:17
,Oracle VM VirtualBox,00:00:00
,Blender,00:00:00
,Adobe Photoshop CS6,00:00:00
,Unity,01:52:34
,Visual Studio Code,04:11:00
,Microsoft Visio,00:00:00
Total,,06:04:51

Date,2018-08-30 - 2018-09-23
,Total Google Chrome,06:04:04
,Total Oracle VM VirtualBox,13:12:20
,Total Blender,00:02:49
,Total Adobe Photoshop CS6,00:15:57
,Total Unity,05:22:17
,Total Visual Studio Code,13:56:07
,Total Microsoft Visio,01:02:17
Total,,39:55:51

