%YAML 1.1
%TAG !u! tag:unity3d.com,2011:
--- !u!114 &11400000
MonoBehaviour:
  m_ObjectHideFlags: 0
  m_CorrespondingSourceObject: {fileID: 0}
  m_PrefabInternal: {fileID: 0}
  m_GameObject: {fileID: 0}
  m_Enabled: 1
  m_EditorHideFlags: 0
  m_Script: {fileID: 11500000, guid: 3d0fd5b8c60970947a4229c5c19bd3c5, type: 3}
  m_Name: CameraData
  m_EditorClassIdentifier: 
  cameraSensitivity: {x: 3, y: 3}
  cameraRotationMaxima: {x: 90, y: 360}
  cameraRotationMinima: {x: -90, y: 0}
  useVerticalClamp: 1
  useCameraSmooth: 0
  cameraSmoothFactor: 0
